{"count":26,"next":"http://freesound.org/apiv2/search/text/?&query=violoncello&filter=tag:tenuto%20duration:[1.0%20TO%2015.0]&sort=rating_desc&page=2&fields=id,name,url","results":[{"id":153757,"url":"https://freesound.org/people/Carlos_Vaquero/sounds/153757/","name":"Violoncello D-3 Tenuto Vibrato"},{"id":153759,"url":"https://freesound.org/people/Carlos_Vaquero/sounds/153759/","name":"Violoncello E-3 Tenuto Vibrato"},{"id":153766,"url":"https://freesound.org/people/Carlos_Vaquero/sounds/153766/","name":"Violoncello B-3 Tenuto Vibrato"},{"id":153762,"url":"https://freesound.org/people/Carlos_Vaquero/sounds/153762/","name":"Violoncello G-3 Tenuto Vibrato"},{"id":153732,"url":"https://freesound.org/people/Carlos_Vaquero/sounds/153732/","name":"Violoncello D#-3 Tenuto Non-Vibrato"},{"id":153738,"url":"https://freesound.org/people/Carlos_Vaquero/sounds/153738/","name":"Violoncello A-3 Tenuto Non-Vibrato"},{"id":153740,"url":"https://freesound.org/people/Carlos_Vaquero/sounds/153740/","name":"Violoncello B-3 Tenuto Non-Vibrato"},{"id":153742,"url":"https://freesound.org/people/Carlos_Vaquero/sounds/153742/","name":"Violoncello C#-4 Tenuto Non-Vibrato"},{"id":153758,"url":"https://freesound.org/people/Carlos_Vaquero/sounds/153758/","name":"Violoncello D#-3 Tenuto Vibrato"},{"id":153764,"url":"https://freesound.org/people/Carlos_Vaquero/sounds/153764/","name":"Violoncello A-3 Tenuto Vibrato"},{"id":153765,"url":"https://freesound.org/people/Carlos_Vaquero/sounds/153765/","name":"Violoncello A#-3 Tenuto Vibrato"},{"id":153767,"url":"https://freesound.org/people/Carlos_Vaquero/sounds/153767/","name":"Violoncello C-4 Tenuto Vibrato"},{"id":153768,"url":"https://freesound.org/people/Carlos_Vaquero/sounds/153768/","name":"Violoncello C#-4 Tenuto Vibrato"},{"id":153760,"url":"https://freesound.org/people/Carlos_Vaquero/sounds/153760/","name":"Violoncello F-3 Tenuto Vibrato"},{"id":153763,"url":"https://freesound.org/people/Carlos_Vaquero/sounds/153763/","name":"Violoncello G#-3 Tenuto Vibrato"}],"previous":null}