{"count":239,"next":"https://freesound.org/apiv2/users/Jovica/packs/?page=2","previous":null,"results":[{"id":21603,"url":"https://freesound.org/people/Jovica/packs/21603/","description":"","created":"2017-03-19T16:21:34","name":"20170319 -  4 chords in a sequence at 60 BPM  -  Embracer","username":"Jovica","num_sounds":32,"sounds":"https://freesound.org/apiv2/packs/21603/sounds/","num_downloads":44},{"id":21601,"url":"https://freesound.org/people/Jovica/packs/21601/","description":"","created":"2017-03-19T16:01:40","name":"20170319 -  3 melancholic chord sequence at 60 BPM  -  Embracer","username":"Jovica","num_sounds":32,"sounds":"https://freesound.org/apiv2/packs/21601/sounds/","num_downloads":35},{"id":21528,"url":"https://freesound.org/people/Jovica/packs/21528/","description":"","created":"2017-03-05T14:07:15","name":"20170226 - 4 melancholic descending chords at 60 BPM - Embracer","username":"Jovica","num_sounds":32,"sounds":"https://freesound.org/apiv2/packs/21528/sounds/","num_downloads":74},{"id":21349,"url":"https://freesound.org/people/Jovica/packs/21349/","description":"","created":"2017-02-05T11:19:06","name":"20170205 - Embracer - C chord sequence @ 80 bpm - NI Guitar Rig 5","username":"Jovica","num_sounds":41,"sounds":"https://freesound.org/apiv2/packs/21349/sounds/","num_downloads":39},{"id":21189,"url":"https://freesound.org/people/Jovica/packs/21189/","description":"","created":"2017-01-20T16:50:57","name":"20170120 - Embracer - white key slow arp up over 2 octaves @ 140 bpm - NI Guitar Rig 5","username":"Jovica","num_sounds":40,"sounds":"https://freesound.org/apiv2/packs/21189/sounds/","num_downloads":23},{"id":21147,"url":"https://freesound.org/people/Jovica/packs/21147/","description":"","created":"2017-01-14T11:44:11","name":"20170114 - Embracer - white key chord sequence @ 140 bpm - NI Guitar Rig 5","username":"Jovica","num_sounds":40,"sounds":"https://freesound.org/apiv2/packs/21147/sounds/","num_downloads":39},{"id":21098,"url":"https://freesound.org/people/Jovica/packs/21098/","description":"","created":"2017-01-08T08:24:49","name":"20170108 - Embracer - white key chord sequence @ 100 bpm - NI Guitar Rig 5","username":"Jovica","num_sounds":73,"sounds":"https://freesound.org/apiv2/packs/21098/sounds/","num_downloads":22},{"id":20979,"url":"https://freesound.org/people/Jovica/packs/20979/","description":"","created":"2017-01-01T16:32:49","name":"20170101 - Embracer - 3D Neverending Story - CEGB Chord @ 100 bpm - NI Guitar Rig 5","username":"Jovica","num_sounds":38,"sounds":"https://freesound.org/apiv2/packs/20979/sounds/","num_downloads":31},{"id":20978,"url":"https://freesound.org/people/Jovica/packs/20978/","description":"","created":"2017-01-01T14:48:15","name":"20170101 - Embracer - Cmaj Chord @ 100 bpm - 3D Orthanc - Longflow","username":"Jovica","num_sounds":38,"sounds":"https://freesound.org/apiv2/packs/20978/sounds/","num_downloads":39},{"id":20968,"url":"https://freesound.org/people/Jovica/packs/20968/","description":"","created":"2016-12-31T15:10:16","name":"20161230 - Embracer - C-F-G-C Chord sequence - 100 bpm","username":"Jovica","num_sounds":32,"sounds":"https://freesound.org/apiv2/packs/20968/sounds/","num_downloads":31},{"id":20965,"url":"https://freesound.org/people/Jovica/packs/20965/","description":"","created":"2016-12-30T17:30:46","name":"20161230 - Embracer - Warm Bath MW - 8 bar chord sequence - f - g - c - 120 bpm","username":"Jovica","num_sounds":20,"sounds":"https://freesound.org/apiv2/packs/20965/sounds/","num_downloads":40},{"id":20957,"url":"https://freesound.org/people/Jovica/packs/20957/","description":"","created":"2016-12-29T16:11:36","name":"20161229 - Piano Chord Sequence C-Dmin-A7-Dmin-Emin-B7-Emin 120 bpm + variations","username":"Jovica","num_sounds":17,"sounds":"https://freesound.org/apiv2/packs/20957/sounds/","num_downloads":35},{"id":18795,"url":"https://freesound.org/people/Jovica/packs/18795/","description":"","created":"2016-01-17T17:24:21","name":"2016 Arpeggios","username":"Jovica","num_sounds":1,"sounds":"https://freesound.org/apiv2/packs/18795/sounds/","num_downloads":26},{"id":16063,"url":"https://freesound.org/people/Jovica/packs/16063/","description":"","created":"2015-01-18T10:44:53","name":"Slayers Pack 1","username":"Jovica","num_sounds":8,"sounds":"https://freesound.org/apiv2/packs/16063/sounds/","num_downloads":41},{"id":15303,"url":"https://freesound.org/people/Jovica/packs/15303/","description":"","created":"2014-09-19T18:52:10","name":"20140914_attackloop_160BPM_4/4_loop_pack","username":"Jovica","num_sounds":36,"sounds":"https://freesound.org/apiv2/packs/15303/sounds/","num_downloads":76}]}