{
  "count": 7813,
  "next": "https://freesound.org/apiv2/users/Jovica/sounds/?page=2",
  "previous": null,
  "results": [
    {
      "id": 384811,
      "name": "20170319 -  4 chords in a sequence at 60 BPM  -  Embracer  -  Trinity Church.wav",
      "tags": ["chords", "chord-sequence", "60bpm", "sequence", "pad"],
      "license": "http://creativecommons.org/licenses/by-nc/3.0/",
      "username": "Jovica"
    },
    {
      "id": 384810,
      "name": "20170319 -  4 chords in a sequence at 60 BPM  -  Embracer  -  Warm Bath MW.wav",
      "tags": ["chords", "chord-sequence", "60bpm", "sequence", "pad"],
      "license": "http://creativecommons.org/licenses/by-nc/3.0/",
      "username": "Jovica"
    },
    {
      "id": 384809,
      "name": "20170319 -  4 chords in a sequence at 60 BPM  -  Embracer  -  Drama Rama.wav",
      "tags": ["chords", "chord-sequence", "60bpm", "sequence", "pad"],
      "license": "http://creativecommons.org/licenses/by-nc/3.0/",
      "username": "Jovica"
    },
    {
      "id": 384808,
      "name": "20170319 -  4 chords in a sequence at 60 BPM  -  Embracer  -  Haunted Hill.wav",
      "tags": ["chords", "chord-sequence", "60bpm", "sequence", "pad"],
      "license": "http://creativecommons.org/licenses/by-nc/3.0/",
      "username": "Jovica"
    },
    {
      "id": 384807,
      "name": "20170319 -  4 chords in a sequence at 60 BPM  -  Embracer  -  Classic Strings.wav",
      "tags": ["chords", "chord-sequence", "60bpm", "sequence", "pad"],
      "license": "http://creativecommons.org/licenses/by-nc/3.0/",
      "username": "Jovica"
    },
    {
      "id": 384806,
      "name": "20170319 -  4 chords in a sequence at 60 BPM  -  Embracer  -  ColdPhaze.wav",
      "tags": ["chords", "chord-sequence", "60bpm", "sequence", "pad"],
      "license": "http://creativecommons.org/licenses/by-nc/3.0/",
      "username": "Jovica"
    },
    {
      "id": 384805,
      "name": "20170319 -  4 chords in a sequence at 60 BPM  -  Embracer  -  Contact.wav",
      "tags": ["chords", "chord-sequence", "60bpm", "sequence", "pad"],
      "license": "http://creativecommons.org/licenses/by-nc/3.0/",
      "username": "Jovica"
    },
    {
      "id": 384804,
      "name": "20170319 -  4 chords in a sequence at 60 BPM  -  Embracer  -  Dawn Of The Dead.wav",
      "tags": ["chords", "chord-sequence", "60bpm", "sequence", "pad"],
      "license": "http://creativecommons.org/licenses/by-nc/3.0/",
      "username": "Jovica"
    },
    {
      "id": 384803,
      "name": "20170319 -  4 chords in a sequence at 60 BPM  -  Embracer  -  Additivism.wav",
      "tags": ["chords", "chord-sequence", "60bpm", "sequence", "pad"],
      "license": "http://creativecommons.org/licenses/by-nc/3.0/",
      "username": "Jovica"
    },
    {
      "id": 384802,
      "name": "20170319 -  4 chords in a sequence at 60 BPM  -  Embracer  -  Basic Element.wav",
      "tags": ["chords", "chord-sequence", "60bpm", "sequence", "pad"],
      "license": "http://creativecommons.org/licenses/by-nc/3.0/",
      "username": "Jovica"
    },
    {
      "id": 384801,
      "name": "20170319 -  4 chords in a sequence at 60 BPM  -  Embracer  -  Blair Witch Project.wav",
      "tags": ["chords", "chord-sequence", "60bpm", "sequence", "pad"],
      "license": "http://creativecommons.org/licenses/by-nc/3.0/",
      "username": "Jovica"
    },
    {
      "id": 384800,
      "name": "20170319 -  4 chords in a sequence at 60 BPM  -  Embracer  -  Breathy Choir.wav",
      "tags": ["chords", "chord-sequence", "60bpm", "sequence", "pad"],
      "license": "http://creativecommons.org/licenses/by-nc/3.0/",
      "username": "Jovica"
    },
    {
      "id": 384789,
      "name": "20170319 -  4 chords in a sequence at 60 BPM  -  Embracer  -  Phasolina.wav",
      "tags": ["chords", "chord-sequence", "60bpm", "sequence", "pad"],
      "license": "http://creativecommons.org/licenses/by-nc/3.0/",
      "username": "Jovica"
    },
    {
      "id": 384788,
      "name": "20170319 -  4 chords in a sequence at 60 BPM  -  Embracer  -  PercBed.wav",
      "tags": ["chords", "chord-sequence", "60bpm", "sequence", "pad"],
      "license": "http://creativecommons.org/licenses/by-nc/3.0/",
      "username": "Jovica"
    },
    {
      "id": 384787,
      "name": "20170319 -  4 chords in a sequence at 60 BPM  -  Embracer  -  Smallville.wav",
      "tags": ["chords", "chord-sequence", "60bpm", "sequence", "pad"],
      "license": "http://creativecommons.org/licenses/by-nc/3.0/",
      "username": "Jovica"
    }
  ]
}
