{
  "count": 480696,
  "next": "http://freesound.org/apiv2/sounds/96541/similar/?&target=96541&page=2",
  "results": [
    {
      "id": 96541,
      "name": "coming soon.wav",
      "tags": [
        "request",
        "female",
        "girl",
        "talk",
        "vocal",
        "voice",
        "american",
        "woman",
        "english",
        "speak"
      ],
      "license": "http://creativecommons.org/licenses/by/3.0/",
      "username": "tim.kahn",
      "distance_to_target": 0
    },
    {
      "id": 96524,
      "name": "shawn_d_speakers_vibrate_01.wav",
      "tags": [
        "american",
        "english",
        "female",
        "girl",
        "request",
        "speak",
        "talk",
        "vocal",
        "voice",
        "woman"
      ],
      "license": "http://creativecommons.org/licenses/by/3.0/",
      "username": "tim.kahn",
      "distance_to_target": 0.44596490263938904
    },
    {
      "id": 96525,
      "name": "shawn_d_speakers_vibrate_02.wav",
      "tags": [
        "american",
        "english",
        "female",
        "girl",
        "request",
        "speak",
        "talk",
        "vocal",
        "voice",
        "woman"
      ],
      "license": "http://creativecommons.org/licenses/by/3.0/",
      "username": "tim.kahn",
      "distance_to_target": 0.5144714117050171
    },
    {
      "id": 96538,
      "name": "hawgies dot com.wav",
      "tags": [
        "american",
        "english",
        "female",
        "girl",
        "request",
        "woman",
        "talk",
        "vocal",
        "voice",
        "speak"
      ],
      "license": "http://creativecommons.org/licenses/by/3.0/",
      "username": "tim.kahn",
      "distance_to_target": 0.5623177289962769
    },
    {
      "id": 96522,
      "name": "shawn_d_favorite.wav",
      "tags": [
        "english",
        "female",
        "girl",
        "request",
        "woman",
        "speak",
        "american",
        "talk",
        "vocal",
        "voice"
      ],
      "license": "http://creativecommons.org/licenses/by/3.0/",
      "username": "tim.kahn",
      "distance_to_target": 0.5800363421440125
    },
    {
      "id": 96547,
      "name": "goodbye sexy.wav",
      "tags": [
        "american",
        "english",
        "female",
        "girl",
        "request",
        "speak",
        "talk",
        "vocal",
        "voice",
        "woman"
      ],
      "license": "http://creativecommons.org/licenses/by/3.0/",
      "username": "tim.kahn",
      "distance_to_target": 0.5950086712837219
    },
    {
      "id": 96527,
      "name": "cursed.wav",
      "tags": [
        "american",
        "english",
        "female",
        "girl",
        "request",
        "speak",
        "talk",
        "vocal",
        "voice",
        "woman"
      ],
      "license": "http://creativecommons.org/licenses/by/3.0/",
      "username": "tim.kahn",
      "distance_to_target": 0.6031830906867981
    },
    {
      "id": 106458,
      "name": "faster harder better volume four.wav",
      "tags": [
        "american",
        "english",
        "female",
        "girl",
        "request",
        "speak",
        "talk",
        "vocal",
        "voice",
        "woman"
      ],
      "license": "http://creativecommons.org/licenses/by/3.0/",
      "username": "tim.kahn",
      "distance_to_target": 0.612686038017273
    },
    {
      "id": 96537,
      "name": "down low radio.wav",
      "tags": [
        "american",
        "english",
        "female",
        "girl",
        "request",
        "speak",
        "talk",
        "vocal",
        "voice",
        "woman"
      ],
      "license": "http://creativecommons.org/licenses/by/3.0/",
      "username": "tim.kahn",
      "distance_to_target": 0.6134651899337769
    },
    {
      "id": 84875,
      "name": "bryan bassett.wav",
      "tags": [
        "american",
        "english",
        "female",
        "speak",
        "talk",
        "vocal",
        "voice"
      ],
      "license": "http://creativecommons.org/licenses/by/3.0/",
      "username": "tim.kahn",
      "distance_to_target": 0.6184166073799133
    },
    {
      "id": 95276,
      "name": "shawn_d_blazin.wav",
      "tags": [
        "american",
        "dj",
        "english",
        "female",
        "girl",
        "request",
        "speak",
        "talk",
        "vocal",
        "voice",
        "woman"
      ],
      "license": "http://creativecommons.org/licenses/by/3.0/",
      "username": "tim.kahn",
      "distance_to_target": 0.6235535144805908
    },
    {
      "id": 107101,
      "name": "dj wams.wav",
      "tags": [
        "american",
        "english",
        "female",
        "girl",
        "request",
        "speak",
        "talk",
        "vocal",
        "voice",
        "woman"
      ],
      "license": "http://creativecommons.org/licenses/by/3.0/",
      "username": "tim.kahn",
      "distance_to_target": 0.6294531226158142
    },
    {
      "id": 94395,
      "name": "the_ladies.wav",
      "tags": [
        "voice",
        "dj",
        "english",
        "talk",
        "vocal",
        "american",
        "request",
        "sexy",
        "speak",
        "female",
        "girl",
        "man"
      ],
      "license": "http://creativecommons.org/licenses/by/3.0/",
      "username": "tim.kahn",
      "distance_to_target": 0.6325920224189758
    },
    {
      "id": 95247,
      "name": "round_ends.wav",
      "tags": [
        "american",
        "english",
        "female",
        "girl",
        "speak",
        "talk",
        "vocal",
        "voice",
        "woman"
      ],
      "license": "http://creativecommons.org/licenses/by/3.0/",
      "username": "tim.kahn",
      "distance_to_target": 0.6343286037445068
    },
    {
      "id": 95277,
      "name": "shawn_d_mix.wav",
      "tags": [
        "american",
        "dj",
        "english",
        "female",
        "girl",
        "request",
        "speak",
        "talk",
        "vocal",
        "voice",
        "woman"
      ],
      "license": "http://creativecommons.org/licenses/by/3.0/",
      "username": "tim.kahn",
      "distance_to_target": 0.6357080936431885
    }
  ],
  "previous": null
}
